{
    "file": "about.md",
    "details": {
        "uid": "about",
        "identity": "admin",
        "narrow": true,
        "title": "About The Memory Hole",
        "createDate": 1532498400,
        "colors": {
            "link": "#a500ff"
        }
    }
}