{
    "file": "privacy-policy.md",
    "details": {
        "uid": "privacy-policy",
        "identity": "admin",
        "title": "Privacy Policy",
        "createDate": 1532498400,
        "colors": {}
    }
}